{
  "files": {
    "main.css": "/static/css/main.d64857f5.chunk.css",
    "main.js": "/static/js/main.cf3f2678.chunk.js",
    "main.js.map": "/static/js/main.cf3f2678.chunk.js.map",
    "runtime-main.js": "/static/js/runtime-main.365a56be.js",
    "runtime-main.js.map": "/static/js/runtime-main.365a56be.js.map",
    "static/js/2.43c7ca52.chunk.js": "/static/js/2.43c7ca52.chunk.js",
    "static/js/2.43c7ca52.chunk.js.map": "/static/js/2.43c7ca52.chunk.js.map",
    "index.html": "/index.html",
    "static/css/main.d64857f5.chunk.css.map": "/static/css/main.d64857f5.chunk.css.map",
    "static/js/2.43c7ca52.chunk.js.LICENSE.txt": "/static/js/2.43c7ca52.chunk.js.LICENSE.txt"
  },
  "entrypoints": [
    "static/js/runtime-main.365a56be.js",
    "static/js/2.43c7ca52.chunk.js",
    "static/css/main.d64857f5.chunk.css",
    "static/js/main.cf3f2678.chunk.js"
  ]
}